[gd_scene load_steps=4 format=2]

[ext_resource path="res://sprites/squared_paper_icon.png" type="Texture" id=1]
[ext_resource path="res://scenes/Note.gd" type="Script" id=2]

[sub_resource type="RectangleShape2D" id=1]
extents = Vector2( 8.06595, 7.32021 )

[node name="Note" type="Area2D"]
script = ExtResource( 2 )

[node name="Sprite" type="Sprite" parent="."]
texture = ExtResource( 1 )

[node name="CollisionShape2D" type="CollisionShape2D" parent="."]
shape = SubResource( 1 )
