[gd_resource type="TileSet" load_steps=3 format=2]

[ext_resource path="res://sprites/InteriorFurnitures.png" type="Texture" id=1]
[ext_resource path="res://sprites/InteriorFurnitures2.png" type="Texture" id=2]

[resource]
0/name = "InteriorFurnitures.png 0"
0/texture = ExtResource( 1 )
0/tex_offset = Vector2( 0, 0 )
0/modulate = Color( 1, 1, 1, 1 )
0/region = Rect2( 672, 0, 32, 96 )
0/tile_mode = 0
0/occluder_offset = Vector2( 0, 0 )
0/navigation_offset = Vector2( 0, 0 )
0/shape_offset = Vector2( 0, 0 )
0/shape_transform = Transform2D( 1, 0, 0, 1, 0, 0 )
0/shape_one_way = false
0/shape_one_way_margin = 0.0
0/shapes = [  ]
0/z_index = 0
1/name = "InteriorFurnitures.png 1"
1/texture = ExtResource( 1 )
1/tex_offset = Vector2( 0, 0 )
1/modulate = Color( 1, 1, 1, 1 )
1/region = Rect2( 736, 0, 32, 96 )
1/tile_mode = 0
1/occluder_offset = Vector2( 0, 0 )
1/navigation_offset = Vector2( 0, 0 )
1/shape_offset = Vector2( 0, 0 )
1/shape_transform = Transform2D( 1, 0, 0, 1, 0, 0 )
1/shape_one_way = false
1/shape_one_way_margin = 0.0
1/shapes = [  ]
1/z_index = 0
2/name = "InteriorFurnitures.png 2"
2/texture = ExtResource( 1 )
2/tex_offset = Vector2( 0, 0 )
2/modulate = Color( 1, 1, 1, 1 )
2/region = Rect2( 704, 0, 32, 96 )
2/tile_mode = 0
2/occluder_offset = Vector2( 0, 0 )
2/navigation_offset = Vector2( 0, 0 )
2/shape_offset = Vector2( 0, 0 )
2/shape_transform = Transform2D( 1, 0, 0, 1, 0, 0 )
2/shape_one_way = false
2/shape_one_way_margin = 0.0
2/shapes = [  ]
2/z_index = 0
3/name = "InteriorFurnitures.png 3"
3/texture = ExtResource( 1 )
3/tex_offset = Vector2( 0, 0 )
3/modulate = Color( 1, 1, 1, 1 )
3/region = Rect2( 768, 0, 64, 96 )
3/tile_mode = 0
3/occluder_offset = Vector2( 0, 0 )
3/navigation_offset = Vector2( 0, 0 )
3/shape_offset = Vector2( 0, 0 )
3/shape_transform = Transform2D( 1, 0, 0, 1, 0, 0 )
3/shape_one_way = false
3/shape_one_way_margin = 0.0
3/shapes = [  ]
3/z_index = 0
4/name = "InteriorFurnitures.png 4"
4/texture = ExtResource( 1 )
4/tex_offset = Vector2( 0, 0 )
4/modulate = Color( 1, 1, 1, 1 )
4/region = Rect2( 832, 0, 64, 96 )
4/tile_mode = 0
4/occluder_offset = Vector2( 0, 0 )
4/navigation_offset = Vector2( 0, 0 )
4/shape_offset = Vector2( 0, 0 )
4/shape_transform = Transform2D( 1, 0, 0, 1, 0, 0 )
4/shape_one_way = false
4/shape_one_way_margin = 0.0
4/shapes = [  ]
4/z_index = 0
5/name = "InteriorFurnitures.png 5"
5/texture = ExtResource( 1 )
5/tex_offset = Vector2( 0, 0 )
5/modulate = Color( 1, 1, 1, 1 )
5/region = Rect2( 896, 0, 64, 96 )
5/tile_mode = 0
5/occluder_offset = Vector2( 0, 0 )
5/navigation_offset = Vector2( 0, 0 )
5/shape_offset = Vector2( 0, 0 )
5/shape_transform = Transform2D( 1, 0, 0, 1, 0, 0 )
5/shape_one_way = false
5/shape_one_way_margin = 0.0
5/shapes = [  ]
5/z_index = 0
6/name = "InteriorFurnitures.png 6"
6/texture = ExtResource( 1 )
6/tex_offset = Vector2( 0, 0 )
6/modulate = Color( 1, 1, 1, 1 )
6/region = Rect2( 928, 96, 32, 96 )
6/tile_mode = 0
6/occluder_offset = Vector2( 0, 0 )
6/navigation_offset = Vector2( 0, 0 )
6/shape_offset = Vector2( 0, 0 )
6/shape_transform = Transform2D( 1, 0, 0, 1, 0, 0 )
6/shape_one_way = false
6/shape_one_way_margin = 0.0
6/shapes = [  ]
6/z_index = 0
7/name = "InteriorFurnitures.png 7"
7/texture = ExtResource( 1 )
7/tex_offset = Vector2( 0, 0 )
7/modulate = Color( 1, 1, 1, 1 )
7/region = Rect2( 960, 96, 32, 64 )
7/tile_mode = 0
7/occluder_offset = Vector2( 0, 0 )
7/navigation_offset = Vector2( 0, 0 )
7/shape_offset = Vector2( 0, 0 )
7/shape_transform = Transform2D( 1, 0, 0, 1, 0, 0 )
7/shape_one_way = false
7/shape_one_way_margin = 0.0
7/shapes = [  ]
7/z_index = 0
8/name = "InteriorFurnitures.png 8"
8/texture = ExtResource( 1 )
8/tex_offset = Vector2( 0, 0 )
8/modulate = Color( 1, 1, 1, 1 )
8/region = Rect2( 0, 480, 64, 32 )
8/tile_mode = 0
8/occluder_offset = Vector2( 0, 0 )
8/navigation_offset = Vector2( 0, 0 )
8/shape_offset = Vector2( 0, 0 )
8/shape_transform = Transform2D( 1, 0, 0, 1, 0, 0 )
8/shape_one_way = false
8/shape_one_way_margin = 0.0
8/shapes = [  ]
8/z_index = 0
9/name = "InteriorFurnitures.png 9"
9/texture = ExtResource( 1 )
9/tex_offset = Vector2( 0, 0 )
9/modulate = Color( 1, 1, 1, 1 )
9/region = Rect2( 64, 480, 32, 32 )
9/tile_mode = 0
9/occluder_offset = Vector2( 0, 0 )
9/navigation_offset = Vector2( 0, 0 )
9/shape_offset = Vector2( 0, 0 )
9/shape_transform = Transform2D( 1, 0, 0, 1, 0, 0 )
9/shape_one_way = false
9/shape_one_way_margin = 0.0
9/shapes = [  ]
9/z_index = 0
10/name = "InteriorFurnitures.png 10"
10/texture = ExtResource( 1 )
10/tex_offset = Vector2( 0, 0 )
10/modulate = Color( 1, 1, 1, 1 )
10/region = Rect2( 160, 480, 32, 32 )
10/tile_mode = 0
10/occluder_offset = Vector2( 0, 0 )
10/navigation_offset = Vector2( 0, 0 )
10/shape_offset = Vector2( 0, 0 )
10/shape_transform = Transform2D( 1, 0, 0, 1, 0, 0 )
10/shape_one_way = false
10/shape_one_way_margin = 0.0
10/shapes = [  ]
10/z_index = 0
11/name = "InteriorFurnitures.png 11"
11/texture = ExtResource( 1 )
11/tex_offset = Vector2( 0, 0 )
11/modulate = Color( 1, 1, 1, 1 )
11/region = Rect2( 192, 512, 64, 64 )
11/tile_mode = 0
11/occluder_offset = Vector2( 0, 0 )
11/navigation_offset = Vector2( 0, 0 )
11/shape_offset = Vector2( 0, 0 )
11/shape_transform = Transform2D( 1, 0, 0, 1, 0, 0 )
11/shape_one_way = false
11/shape_one_way_margin = 0.0
11/shapes = [  ]
11/z_index = 0
12/name = "InteriorFurnitures.png 12"
12/texture = ExtResource( 1 )
12/tex_offset = Vector2( 0, 0 )
12/modulate = Color( 1, 1, 1, 1 )
12/region = Rect2( 192, 480, 64, 32 )
12/tile_mode = 0
12/occluder_offset = Vector2( 0, 0 )
12/navigation_offset = Vector2( 0, 0 )
12/shape_offset = Vector2( 0, 0 )
12/shape_transform = Transform2D( 1, 0, 0, 1, 0, 0 )
12/shape_one_way = false
12/shape_one_way_margin = 0.0
12/shapes = [  ]
12/z_index = 0
13/name = "InteriorFurnitures.png 13"
13/texture = ExtResource( 1 )
13/tex_offset = Vector2( 0, 0 )
13/modulate = Color( 1, 1, 1, 1 )
13/region = Rect2( 256, 448, 32, 96 )
13/tile_mode = 0
13/occluder_offset = Vector2( 0, 0 )
13/navigation_offset = Vector2( 0, 0 )
13/shape_offset = Vector2( 0, 0 )
13/shape_transform = Transform2D( 1, 0, 0, 1, 0, 0 )
13/shape_one_way = false
13/shape_one_way_margin = 0.0
13/shapes = [  ]
13/z_index = 0
14/name = "InteriorFurnitures.png 14"
14/texture = ExtResource( 1 )
14/tex_offset = Vector2( 0, 0 )
14/modulate = Color( 1, 1, 1, 1 )
14/region = Rect2( 288, 448, 32, 96 )
14/tile_mode = 0
14/occluder_offset = Vector2( 0, 0 )
14/navigation_offset = Vector2( 0, 0 )
14/shape_offset = Vector2( 0, 0 )
14/shape_transform = Transform2D( 1, 0, 0, 1, 0, 0 )
14/shape_one_way = false
14/shape_one_way_margin = 0.0
14/shapes = [  ]
14/z_index = 0
15/name = "InteriorFurnitures.png 15"
15/texture = ExtResource( 1 )
15/tex_offset = Vector2( 0, 0 )
15/modulate = Color( 1, 1, 1, 1 )
15/region = Rect2( 320, 448, 32, 96 )
15/tile_mode = 0
15/occluder_offset = Vector2( 0, 0 )
15/navigation_offset = Vector2( 0, 0 )
15/shape_offset = Vector2( 0, 0 )
15/shape_transform = Transform2D( 1, 0, 0, 1, 0, 0 )
15/shape_one_way = false
15/shape_one_way_margin = 0.0
15/shapes = [  ]
15/z_index = 0
16/name = "InteriorFurnitures.png 16"
16/texture = ExtResource( 1 )
16/tex_offset = Vector2( 0, 0 )
16/modulate = Color( 1, 1, 1, 1 )
16/region = Rect2( 352, 448, 32, 96 )
16/tile_mode = 0
16/occluder_offset = Vector2( 0, 0 )
16/navigation_offset = Vector2( 0, 0 )
16/shape_offset = Vector2( 0, 0 )
16/shape_transform = Transform2D( 1, 0, 0, 1, 0, 0 )
16/shape_one_way = false
16/shape_one_way_margin = 0.0
16/shapes = [  ]
16/z_index = 0
17/name = "InteriorFurnitures.png 17"
17/texture = ExtResource( 1 )
17/tex_offset = Vector2( 0, 0 )
17/modulate = Color( 1, 1, 1, 1 )
17/region = Rect2( 416, 480, 32, 64 )
17/tile_mode = 0
17/occluder_offset = Vector2( 0, 0 )
17/navigation_offset = Vector2( 0, 0 )
17/shape_offset = Vector2( 0, 0 )
17/shape_transform = Transform2D( 1, 0, 0, 1, 0, 0 )
17/shape_one_way = false
17/shape_one_way_margin = 0.0
17/shapes = [  ]
17/z_index = 0
18/name = "InteriorFurnitures.png 18"
18/texture = ExtResource( 1 )
18/tex_offset = Vector2( 0, 0 )
18/modulate = Color( 1, 1, 1, 1 )
18/region = Rect2( 448, 480, 32, 64 )
18/tile_mode = 0
18/occluder_offset = Vector2( 0, 0 )
18/navigation_offset = Vector2( 0, 0 )
18/shape_offset = Vector2( 0, 0 )
18/shape_transform = Transform2D( 1, 0, 0, 1, 0, 0 )
18/shape_one_way = false
18/shape_one_way_margin = 0.0
18/shapes = [  ]
18/z_index = 0
19/name = "InteriorFurnitures.png 19"
19/texture = ExtResource( 1 )
19/tex_offset = Vector2( 0, 0 )
19/modulate = Color( 1, 1, 1, 1 )
19/region = Rect2( 480, 480, 32, 64 )
19/tile_mode = 0
19/occluder_offset = Vector2( 0, 0 )
19/navigation_offset = Vector2( 0, 0 )
19/shape_offset = Vector2( 0, 0 )
19/shape_transform = Transform2D( 1, 0, 0, 1, 0, 0 )
19/shape_one_way = false
19/shape_one_way_margin = 0.0
19/shapes = [  ]
19/z_index = 0
20/name = "InteriorFurnitures.png 20"
20/texture = ExtResource( 1 )
20/tex_offset = Vector2( 0, 0 )
20/modulate = Color( 1, 1, 1, 1 )
20/region = Rect2( 352, 288, 96, 96 )
20/tile_mode = 0
20/occluder_offset = Vector2( 0, 0 )
20/navigation_offset = Vector2( 0, 0 )
20/shape_offset = Vector2( 0, 0 )
20/shape_transform = Transform2D( 1, 0, 0, 1, 0, 0 )
20/shape_one_way = false
20/shape_one_way_margin = 0.0
20/shapes = [  ]
20/z_index = 0
21/name = "InteriorFurnitures.png 21"
21/texture = ExtResource( 1 )
21/tex_offset = Vector2( 0, 0 )
21/modulate = Color( 1, 1, 1, 1 )
21/region = Rect2( 512, 256, 64, 96 )
21/tile_mode = 0
21/occluder_offset = Vector2( 0, 0 )
21/navigation_offset = Vector2( 0, 0 )
21/shape_offset = Vector2( 0, 0 )
21/shape_transform = Transform2D( 1, 0, 0, 1, 0, 0 )
21/shape_one_way = false
21/shape_one_way_margin = 0.0
21/shapes = [  ]
21/z_index = 0
22/name = "InteriorFurnitures.png 22"
22/texture = ExtResource( 1 )
22/tex_offset = Vector2( 0, 0 )
22/modulate = Color( 1, 1, 1, 1 )
22/region = Rect2( 512, 96, 64, 96 )
22/tile_mode = 0
22/occluder_offset = Vector2( 0, 0 )
22/navigation_offset = Vector2( 0, 0 )
22/shape_offset = Vector2( 0, 0 )
22/shape_transform = Transform2D( 1, 0, 0, 1, 0, 0 )
22/shape_one_way = false
22/shape_one_way_margin = 0.0
22/shapes = [  ]
22/z_index = 0
23/name = "InteriorFurnitures.png 23"
23/texture = ExtResource( 1 )
23/tex_offset = Vector2( 0, 0 )
23/modulate = Color( 1, 1, 1, 1 )
23/region = Rect2( 608, 0, 64, 96 )
23/tile_mode = 0
23/occluder_offset = Vector2( 0, 0 )
23/navigation_offset = Vector2( 0, 0 )
23/shape_offset = Vector2( 0, 0 )
23/shape_transform = Transform2D( 1, 0, 0, 1, 0, 0 )
23/shape_one_way = false
23/shape_one_way_margin = 0.0
23/shapes = [  ]
23/z_index = 0
24/name = "InteriorFurnitures.png 24"
24/texture = ExtResource( 1 )
24/tex_offset = Vector2( 0, 0 )
24/modulate = Color( 1, 1, 1, 1 )
24/region = Rect2( 576, 96, 64, 96 )
24/tile_mode = 0
24/occluder_offset = Vector2( 0, 0 )
24/navigation_offset = Vector2( 0, 0 )
24/shape_offset = Vector2( 0, 0 )
24/shape_transform = Transform2D( 1, 0, 0, 1, 0, 0 )
24/shape_one_way = false
24/shape_one_way_margin = 0.0
24/shapes = [  ]
24/z_index = 0
25/name = "InteriorFurnitures.png 25"
25/texture = ExtResource( 1 )
25/tex_offset = Vector2( 0, 0 )
25/modulate = Color( 1, 1, 1, 1 )
25/region = Rect2( 576, 256, 32, 64 )
25/tile_mode = 0
25/occluder_offset = Vector2( 0, 0 )
25/navigation_offset = Vector2( 0, 0 )
25/shape_offset = Vector2( 0, 0 )
25/shape_transform = Transform2D( 1, 0, 0, 1, 0, 0 )
25/shape_one_way = false
25/shape_one_way_margin = 0.0
25/shapes = [  ]
25/z_index = 0
26/name = "InteriorFurnitures.png 26"
26/texture = ExtResource( 1 )
26/tex_offset = Vector2( 0, 0 )
26/modulate = Color( 1, 1, 1, 1 )
26/region = Rect2( 512, 192, 64, 64 )
26/tile_mode = 0
26/occluder_offset = Vector2( 0, 0 )
26/navigation_offset = Vector2( 0, 0 )
26/shape_offset = Vector2( 0, 0 )
26/shape_transform = Transform2D( 1, 0, 0, 1, 0, 0 )
26/shape_one_way = false
26/shape_one_way_margin = 0.0
26/shapes = [  ]
26/z_index = 0
27/name = "InteriorFurnitures.png 27"
27/texture = ExtResource( 1 )
27/tex_offset = Vector2( 0, 0 )
27/modulate = Color( 1, 1, 1, 1 )
27/region = Rect2( 736, 96, 64, 64 )
27/tile_mode = 0
27/occluder_offset = Vector2( 0, 0 )
27/navigation_offset = Vector2( 0, 0 )
27/shape_offset = Vector2( 0, 0 )
27/shape_transform = Transform2D( 1, 0, 0, 1, 0, 0 )
27/shape_one_way = false
27/shape_one_way_margin = 0.0
27/shapes = [  ]
27/z_index = 0
28/name = "InteriorFurnitures.png 28"
28/texture = ExtResource( 1 )
28/tex_offset = Vector2( 0, 0 )
28/modulate = Color( 1, 1, 1, 1 )
28/region = Rect2( 800, 96, 32, 64 )
28/tile_mode = 0
28/occluder_offset = Vector2( 0, 0 )
28/navigation_offset = Vector2( 0, 0 )
28/shape_offset = Vector2( 0, 0 )
28/shape_transform = Transform2D( 1, 0, 0, 1, 0, 0 )
28/shape_one_way = false
28/shape_one_way_margin = 0.0
28/shapes = [  ]
28/z_index = 0
29/name = "InteriorFurnitures.png 29"
29/texture = ExtResource( 1 )
29/tex_offset = Vector2( 0, 0 )
29/modulate = Color( 1, 1, 1, 1 )
29/region = Rect2( 864, 96, 64, 64 )
29/tile_mode = 0
29/occluder_offset = Vector2( 0, 0 )
29/navigation_offset = Vector2( 0, 0 )
29/shape_offset = Vector2( 0, 0 )
29/shape_transform = Transform2D( 1, 0, 0, 1, 0, 0 )
29/shape_one_way = false
29/shape_one_way_margin = 0.0
29/shapes = [  ]
29/z_index = 0
30/name = "InteriorFurnitures.png 30"
30/texture = ExtResource( 1 )
30/tex_offset = Vector2( 0, 0 )
30/modulate = Color( 1, 1, 1, 1 )
30/region = Rect2( 704, 96, 32, 64 )
30/tile_mode = 0
30/occluder_offset = Vector2( 0, 0 )
30/navigation_offset = Vector2( 0, 0 )
30/shape_offset = Vector2( 0, 0 )
30/shape_transform = Transform2D( 1, 0, 0, 1, 0, 0 )
30/shape_one_way = false
30/shape_one_way_margin = 0.0
30/shapes = [  ]
30/z_index = 0
31/name = "InteriorFurnitures.png 31"
31/texture = ExtResource( 1 )
31/tex_offset = Vector2( 0, 0 )
31/modulate = Color( 1, 1, 1, 1 )
31/region = Rect2( 480, 0, 64, 96 )
31/tile_mode = 0
31/occluder_offset = Vector2( 0, 0 )
31/navigation_offset = Vector2( 0, 0 )
31/shape_offset = Vector2( 0, 0 )
31/shape_transform = Transform2D( 1, 0, 0, 1, 0, 0 )
31/shape_one_way = false
31/shape_one_way_margin = 0.0
31/shapes = [  ]
31/z_index = 0
32/name = "InteriorFurnitures.png 32"
32/texture = ExtResource( 1 )
32/tex_offset = Vector2( 0, 0 )
32/modulate = Color( 1, 1, 1, 1 )
32/region = Rect2( 544, 480, 96, 96 )
32/tile_mode = 0
32/occluder_offset = Vector2( 0, 0 )
32/navigation_offset = Vector2( 0, 0 )
32/shape_offset = Vector2( 0, 0 )
32/shape_transform = Transform2D( 1, 0, 0, 1, 0, 0 )
32/shape_one_way = false
32/shape_one_way_margin = 0.0
32/shapes = [  ]
32/z_index = 0
33/name = "InteriorFurnitures.png 33"
33/texture = ExtResource( 1 )
33/tex_offset = Vector2( 0, 0 )
33/modulate = Color( 1, 1, 1, 1 )
33/region = Rect2( 928, 448, 32, 96 )
33/tile_mode = 0
33/occluder_offset = Vector2( 0, 0 )
33/navigation_offset = Vector2( 0, 0 )
33/shape_offset = Vector2( 0, 0 )
33/shape_transform = Transform2D( 1, 0, 0, 1, 0, 0 )
33/shape_one_way = false
33/shape_one_way_margin = 0.0
33/shapes = [  ]
33/z_index = 0
34/name = "InteriorFurnitures.png 34"
34/texture = ExtResource( 1 )
34/tex_offset = Vector2( 0, 0 )
34/modulate = Color( 1, 1, 1, 1 )
34/region = Rect2( 832, 416, 96, 64 )
34/tile_mode = 0
34/occluder_offset = Vector2( 0, 0 )
34/navigation_offset = Vector2( 0, 0 )
34/shape_offset = Vector2( 0, 0 )
34/shape_transform = Transform2D( 1, 0, 0, 1, 0, 0 )
34/shape_one_way = false
34/shape_one_way_margin = 0.0
34/shapes = [  ]
34/z_index = 0
35/name = "InteriorFurnitures.png 35"
35/texture = ExtResource( 1 )
35/tex_offset = Vector2( 0, 0 )
35/modulate = Color( 1, 1, 1, 1 )
35/region = Rect2( 736, 416, 32, 32 )
35/tile_mode = 0
35/occluder_offset = Vector2( 0, 0 )
35/navigation_offset = Vector2( 0, 0 )
35/shape_offset = Vector2( 0, 0 )
35/shape_transform = Transform2D( 1, 0, 0, 1, 0, 0 )
35/shape_one_way = false
35/shape_one_way_margin = 0.0
35/shapes = [  ]
35/z_index = 0
36/name = "InteriorFurnitures.png 36"
36/texture = ExtResource( 1 )
36/tex_offset = Vector2( 0, 0 )
36/modulate = Color( 1, 1, 1, 1 )
36/region = Rect2( 768, 416, 32, 32 )
36/tile_mode = 0
36/occluder_offset = Vector2( 0, 0 )
36/navigation_offset = Vector2( 0, 0 )
36/shape_offset = Vector2( 0, 0 )
36/shape_transform = Transform2D( 1, 0, 0, 1, 0, 0 )
36/shape_one_way = false
36/shape_one_way_margin = 0.0
36/shapes = [  ]
36/z_index = 0
37/name = "InteriorFurnitures.png 37"
37/texture = ExtResource( 1 )
37/tex_offset = Vector2( 0, 0 )
37/modulate = Color( 1, 1, 1, 1 )
37/region = Rect2( 800, 416, 32, 32 )
37/tile_mode = 0
37/occluder_offset = Vector2( 0, 0 )
37/navigation_offset = Vector2( 0, 0 )
37/shape_offset = Vector2( 0, 0 )
37/shape_transform = Transform2D( 1, 0, 0, 1, 0, 0 )
37/shape_one_way = false
37/shape_one_way_margin = 0.0
37/shapes = [  ]
37/z_index = 0
38/name = "InteriorFurnitures.png 38"
38/texture = ExtResource( 1 )
38/tex_offset = Vector2( 0, 0 )
38/modulate = Color( 1, 1, 1, 1 )
38/region = Rect2( 736, 448, 32, 32 )
38/tile_mode = 0
38/occluder_offset = Vector2( 0, 0 )
38/navigation_offset = Vector2( 0, 0 )
38/shape_offset = Vector2( 0, 0 )
38/shape_transform = Transform2D( 1, 0, 0, 1, 0, 0 )
38/shape_one_way = false
38/shape_one_way_margin = 0.0
38/shapes = [  ]
38/z_index = 0
39/name = "InteriorFurnitures.png 39"
39/texture = ExtResource( 1 )
39/tex_offset = Vector2( 0, 0 )
39/modulate = Color( 1, 1, 1, 1 )
39/region = Rect2( 768, 448, 32, 32 )
39/tile_mode = 0
39/occluder_offset = Vector2( 0, 0 )
39/navigation_offset = Vector2( 0, 0 )
39/shape_offset = Vector2( 0, 0 )
39/shape_transform = Transform2D( 1, 0, 0, 1, 0, 0 )
39/shape_one_way = false
39/shape_one_way_margin = 0.0
39/shapes = [  ]
39/z_index = 0
40/name = "InteriorFurnitures.png 40"
40/texture = ExtResource( 1 )
40/tex_offset = Vector2( 0, 0 )
40/modulate = Color( 1, 1, 1, 1 )
40/region = Rect2( 800, 448, 32, 32 )
40/tile_mode = 0
40/occluder_offset = Vector2( 0, 0 )
40/navigation_offset = Vector2( 0, 0 )
40/shape_offset = Vector2( 0, 0 )
40/shape_transform = Transform2D( 1, 0, 0, 1, 0, 0 )
40/shape_one_way = false
40/shape_one_way_margin = 0.0
40/shapes = [  ]
40/z_index = 0
41/name = "InteriorFurnitures.png 41"
41/texture = ExtResource( 1 )
41/tex_offset = Vector2( 0, 0 )
41/modulate = Color( 1, 1, 1, 1 )
41/region = Rect2( 896, 352, 32, 64 )
41/tile_mode = 0
41/occluder_offset = Vector2( 0, 0 )
41/navigation_offset = Vector2( 0, 0 )
41/shape_offset = Vector2( 0, 0 )
41/shape_transform = Transform2D( 1, 0, 0, 1, 0, 0 )
41/shape_one_way = false
41/shape_one_way_margin = 0.0
41/shapes = [  ]
41/z_index = 0
42/name = "InteriorFurnitures.png 42"
42/texture = ExtResource( 1 )
42/tex_offset = Vector2( 0, 0 )
42/modulate = Color( 1, 1, 1, 1 )
42/region = Rect2( 448, 192, 64, 96 )
42/tile_mode = 0
42/occluder_offset = Vector2( 0, 0 )
42/navigation_offset = Vector2( 0, 0 )
42/shape_offset = Vector2( 0, 0 )
42/shape_transform = Transform2D( 1, 0, 0, 1, 0, 0 )
42/shape_one_way = false
42/shape_one_way_margin = 0.0
42/shapes = [  ]
42/z_index = 0
43/name = "InteriorFurnitures.png 43"
43/texture = ExtResource( 1 )
43/tex_offset = Vector2( 0, 0 )
43/modulate = Color( 1, 1, 1, 1 )
43/region = Rect2( 448, 288, 32, 64 )
43/tile_mode = 0
43/occluder_offset = Vector2( 0, 0 )
43/navigation_offset = Vector2( 0, 0 )
43/shape_offset = Vector2( 0, 0 )
43/shape_transform = Transform2D( 1, 0, 0, 1, 0, 0 )
43/shape_one_way = false
43/shape_one_way_margin = 0.0
43/shapes = [  ]
43/z_index = 0
44/name = "InteriorFurnitures.png 44"
44/texture = ExtResource( 1 )
44/tex_offset = Vector2( 0, 0 )
44/modulate = Color( 1, 1, 1, 1 )
44/region = Rect2( 480, 288, 32, 64 )
44/tile_mode = 0
44/occluder_offset = Vector2( 0, 0 )
44/navigation_offset = Vector2( 0, 0 )
44/shape_offset = Vector2( 0, 0 )
44/shape_transform = Transform2D( 1, 0, 0, 1, 0, 0 )
44/shape_one_way = false
44/shape_one_way_margin = 0.0
44/shapes = [  ]
44/z_index = 0
45/name = "InteriorFurnitures.png 45"
45/texture = ExtResource( 1 )
45/tex_offset = Vector2( 0, 0 )
45/modulate = Color( 1, 1, 1, 1 )
45/region = Rect2( 448, 352, 32, 32 )
45/tile_mode = 0
45/occluder_offset = Vector2( 0, 0 )
45/navigation_offset = Vector2( 0, 0 )
45/shape_offset = Vector2( 0, 0 )
45/shape_transform = Transform2D( 1, 0, 0, 1, 0, 0 )
45/shape_one_way = false
45/shape_one_way_margin = 0.0
45/shapes = [  ]
45/z_index = 0
46/name = "InteriorFurnitures.png 46"
46/texture = ExtResource( 1 )
46/tex_offset = Vector2( 0, 0 )
46/modulate = Color( 1, 1, 1, 1 )
46/region = Rect2( 480, 352, 32, 32 )
46/tile_mode = 0
46/occluder_offset = Vector2( 0, 0 )
46/navigation_offset = Vector2( 0, 0 )
46/shape_offset = Vector2( 0, 0 )
46/shape_transform = Transform2D( 1, 0, 0, 1, 0, 0 )
46/shape_one_way = false
46/shape_one_way_margin = 0.0
46/shapes = [  ]
46/z_index = 0
47/name = "InteriorFurnitures.png 47"
47/texture = ExtResource( 1 )
47/tex_offset = Vector2( 0, 0 )
47/modulate = Color( 1, 1, 1, 1 )
47/region = Rect2( 256, 544, 32, 96 )
47/tile_mode = 0
47/occluder_offset = Vector2( 0, 0 )
47/navigation_offset = Vector2( 0, 0 )
47/shape_offset = Vector2( 0, 0 )
47/shape_transform = Transform2D( 1, 0, 0, 1, 0, 0 )
47/shape_one_way = false
47/shape_one_way_margin = 0.0
47/shapes = [  ]
47/z_index = 0
48/name = "InteriorFurnitures.png 48"
48/texture = ExtResource( 1 )
48/tex_offset = Vector2( 0, 0 )
48/modulate = Color( 1, 1, 1, 1 )
48/region = Rect2( 288, 544, 32, 96 )
48/tile_mode = 0
48/occluder_offset = Vector2( 0, 0 )
48/navigation_offset = Vector2( 0, 0 )
48/shape_offset = Vector2( 0, 0 )
48/shape_transform = Transform2D( 1, 0, 0, 1, 0, 0 )
48/shape_one_way = false
48/shape_one_way_margin = 0.0
48/shapes = [  ]
48/z_index = 0
49/name = "InteriorFurnitures.png 49"
49/texture = ExtResource( 1 )
49/tex_offset = Vector2( 0, 0 )
49/modulate = Color( 1, 1, 1, 1 )
49/region = Rect2( 320, 544, 32, 96 )
49/tile_mode = 0
49/occluder_offset = Vector2( 0, 0 )
49/navigation_offset = Vector2( 0, 0 )
49/shape_offset = Vector2( 0, 0 )
49/shape_transform = Transform2D( 1, 0, 0, 1, 0, 0 )
49/shape_one_way = false
49/shape_one_way_margin = 0.0
49/shapes = [  ]
49/z_index = 0
50/name = "InteriorFurnitures.png 50"
50/texture = ExtResource( 1 )
50/tex_offset = Vector2( 0, 0 )
50/modulate = Color( 1, 1, 1, 1 )
50/region = Rect2( 352, 544, 32, 96 )
50/tile_mode = 0
50/occluder_offset = Vector2( 0, 0 )
50/navigation_offset = Vector2( 0, 0 )
50/shape_offset = Vector2( 0, 0 )
50/shape_transform = Transform2D( 1, 0, 0, 1, 0, 0 )
50/shape_one_way = false
50/shape_one_way_margin = 0.0
50/shapes = [  ]
50/z_index = 0
51/name = "InteriorFurnitures.png 51"
51/texture = ExtResource( 1 )
51/tex_offset = Vector2( 0, 0 )
51/modulate = Color( 1, 1, 1, 1 )
51/region = Rect2( 384, 544, 32, 96 )
51/tile_mode = 0
51/occluder_offset = Vector2( 0, 0 )
51/navigation_offset = Vector2( 0, 0 )
51/shape_offset = Vector2( 0, 0 )
51/shape_transform = Transform2D( 1, 0, 0, 1, 0, 0 )
51/shape_one_way = false
51/shape_one_way_margin = 0.0
51/shapes = [  ]
51/z_index = 0
52/name = "InteriorFurnitures.png 52"
52/texture = ExtResource( 1 )
52/tex_offset = Vector2( 0, 0 )
52/modulate = Color( 1, 1, 1, 1 )
52/region = Rect2( 416, 544, 64, 64 )
52/tile_mode = 0
52/occluder_offset = Vector2( 0, 0 )
52/navigation_offset = Vector2( 0, 0 )
52/shape_offset = Vector2( 0, 0 )
52/shape_transform = Transform2D( 1, 0, 0, 1, 0, 0 )
52/shape_one_way = false
52/shape_one_way_margin = 0.0
52/shapes = [  ]
52/z_index = 0
53/name = "InteriorFurnitures.png 53"
53/texture = ExtResource( 1 )
53/tex_offset = Vector2( 0, 0 )
53/modulate = Color( 1, 1, 1, 1 )
53/region = Rect2( 480, 544, 32, 32 )
53/tile_mode = 0
53/occluder_offset = Vector2( 0, 0 )
53/navigation_offset = Vector2( 0, 0 )
53/shape_offset = Vector2( 0, 0 )
53/shape_transform = Transform2D( 1, 0, 0, 1, 0, 0 )
53/shape_one_way = false
53/shape_one_way_margin = 0.0
53/shapes = [  ]
53/z_index = 0
54/name = "InteriorFurnitures.png 54"
54/texture = ExtResource( 1 )
54/tex_offset = Vector2( 0, 0 )
54/modulate = Color( 1, 1, 1, 1 )
54/region = Rect2( 480, 576, 32, 32 )
54/tile_mode = 0
54/occluder_offset = Vector2( 0, 0 )
54/navigation_offset = Vector2( 0, 0 )
54/shape_offset = Vector2( 0, 0 )
54/shape_transform = Transform2D( 1, 0, 0, 1, 0, 0 )
54/shape_one_way = false
54/shape_one_way_margin = 0.0
54/shapes = [  ]
54/z_index = 0
55/name = "InteriorFurnitures.png 55"
55/texture = ExtResource( 1 )
55/tex_offset = Vector2( 0, 0 )
55/modulate = Color( 1, 1, 1, 1 )
55/region = Rect2( 512, 576, 32, 32 )
55/tile_mode = 0
55/occluder_offset = Vector2( 0, 0 )
55/navigation_offset = Vector2( 0, 0 )
55/shape_offset = Vector2( 0, 0 )
55/shape_transform = Transform2D( 1, 0, 0, 1, 0, 0 )
55/shape_one_way = false
55/shape_one_way_margin = 0.0
55/shapes = [  ]
55/z_index = 0
56/name = "InteriorFurnitures.png 56"
56/texture = ExtResource( 1 )
56/tex_offset = Vector2( 0, 0 )
56/modulate = Color( 1, 1, 1, 1 )
56/region = Rect2( 512, 608, 32, 32 )
56/tile_mode = 0
56/occluder_offset = Vector2( 0, 0 )
56/navigation_offset = Vector2( 0, 0 )
56/shape_offset = Vector2( 0, 0 )
56/shape_transform = Transform2D( 1, 0, 0, 1, 0, 0 )
56/shape_one_way = false
56/shape_one_way_margin = 0.0
56/shapes = [  ]
56/z_index = 0
57/name = "InteriorFurnitures.png 57"
57/texture = ExtResource( 1 )
57/tex_offset = Vector2( 0, 0 )
57/modulate = Color( 1, 1, 1, 1 )
57/region = Rect2( 416, 608, 32, 64 )
57/tile_mode = 0
57/occluder_offset = Vector2( 0, 0 )
57/navigation_offset = Vector2( 0, 0 )
57/shape_offset = Vector2( 0, 0 )
57/shape_transform = Transform2D( 1, 0, 0, 1, 0, 0 )
57/shape_one_way = false
57/shape_one_way_margin = 0.0
57/shapes = [  ]
57/z_index = 0
58/name = "InteriorFurnitures.png 58"
58/texture = ExtResource( 1 )
58/tex_offset = Vector2( 0, 0 )
58/modulate = Color( 1, 1, 1, 1 )
58/region = Rect2( 576, 576, 32, 64 )
58/tile_mode = 0
58/occluder_offset = Vector2( 0, 0 )
58/navigation_offset = Vector2( 0, 0 )
58/shape_offset = Vector2( 0, 0 )
58/shape_transform = Transform2D( 1, 0, 0, 1, 0, 0 )
58/shape_one_way = false
58/shape_one_way_margin = 0.0
58/shapes = [  ]
58/z_index = 0
59/name = "InteriorFurnitures.png 59"
59/texture = ExtResource( 1 )
59/tex_offset = Vector2( 0, 0 )
59/modulate = Color( 1, 1, 1, 1 )
59/region = Rect2( 608, 576, 64, 96 )
59/tile_mode = 0
59/occluder_offset = Vector2( 0, 0 )
59/navigation_offset = Vector2( 0, 0 )
59/shape_offset = Vector2( 0, 0 )
59/shape_transform = Transform2D( 1, 0, 0, 1, 0, 0 )
59/shape_one_way = false
59/shape_one_way_margin = 0.0
59/shapes = [  ]
59/z_index = 0
60/name = "InteriorFurnitures.png 60"
60/texture = ExtResource( 1 )
60/tex_offset = Vector2( 0, 0 )
60/modulate = Color( 1, 1, 1, 1 )
60/region = Rect2( 992, 608, 32, 32 )
60/tile_mode = 0
60/occluder_offset = Vector2( 0, 0 )
60/navigation_offset = Vector2( 0, 0 )
60/shape_offset = Vector2( 0, 0 )
60/shape_transform = Transform2D( 1, 0, 0, 1, 0, 0 )
60/shape_one_way = false
60/shape_one_way_margin = 0.0
60/shapes = [  ]
60/z_index = 0
61/name = "InteriorFurnitures.png 61"
61/texture = ExtResource( 1 )
61/tex_offset = Vector2( 0, 0 )
61/modulate = Color( 1, 1, 1, 1 )
61/region = Rect2( 992, 640, 32, 32 )
61/tile_mode = 0
61/occluder_offset = Vector2( 0, 0 )
61/navigation_offset = Vector2( 0, 0 )
61/shape_offset = Vector2( 0, 0 )
61/shape_transform = Transform2D( 1, 0, 0, 1, 0, 0 )
61/shape_one_way = false
61/shape_one_way_margin = 0.0
61/shapes = [  ]
61/z_index = 0
62/name = "InteriorFurnitures.png 62"
62/texture = ExtResource( 1 )
62/tex_offset = Vector2( 0, 0 )
62/modulate = Color( 1, 1, 1, 1 )
62/region = Rect2( 992, 672, 32, 32 )
62/tile_mode = 0
62/occluder_offset = Vector2( 0, 0 )
62/navigation_offset = Vector2( 0, 0 )
62/shape_offset = Vector2( 0, 0 )
62/shape_transform = Transform2D( 1, 0, 0, 1, 0, 0 )
62/shape_one_way = false
62/shape_one_way_margin = 0.0
62/shapes = [  ]
62/z_index = 0
63/name = "InteriorFurnitures.png 63"
63/texture = ExtResource( 1 )
63/tex_offset = Vector2( 0, 0 )
63/modulate = Color( 1, 1, 1, 1 )
63/region = Rect2( 992, 704, 32, 32 )
63/tile_mode = 0
63/occluder_offset = Vector2( 0, 0 )
63/navigation_offset = Vector2( 0, 0 )
63/shape_offset = Vector2( 0, 0 )
63/shape_transform = Transform2D( 1, 0, 0, 1, 0, 0 )
63/shape_one_way = false
63/shape_one_way_margin = 0.0
63/shapes = [  ]
63/z_index = 0
64/name = "InteriorFurnitures.png 64"
64/texture = ExtResource( 1 )
64/tex_offset = Vector2( 0, 0 )
64/modulate = Color( 1, 1, 1, 1 )
64/region = Rect2( 928, 416, 96, 32 )
64/tile_mode = 0
64/occluder_offset = Vector2( 0, 0 )
64/navigation_offset = Vector2( 0, 0 )
64/shape_offset = Vector2( 0, 0 )
64/shape_transform = Transform2D( 1, 0, 0, 1, 0, 0 )
64/shape_one_way = false
64/shape_one_way_margin = 0.0
64/shapes = [  ]
64/z_index = 0
65/name = "InteriorFurnitures.png 65"
65/texture = ExtResource( 1 )
65/tex_offset = Vector2( 0, 0 )
65/modulate = Color( 1, 1, 1, 1 )
65/region = Rect2( 384, 672, 32, 96 )
65/tile_mode = 0
65/occluder_offset = Vector2( 0, 0 )
65/navigation_offset = Vector2( 0, 0 )
65/shape_offset = Vector2( 0, 0 )
65/shape_transform = Transform2D( 1, 0, 0, 1, 0, 0 )
65/shape_one_way = false
65/shape_one_way_margin = 0.0
65/shapes = [  ]
65/z_index = 0
66/name = "InteriorFurnitures.png 66"
66/texture = ExtResource( 1 )
66/tex_offset = Vector2( 0, 0 )
66/modulate = Color( 1, 1, 1, 1 )
66/region = Rect2( 448, 672, 32, 96 )
66/tile_mode = 0
66/occluder_offset = Vector2( 0, 0 )
66/navigation_offset = Vector2( 0, 0 )
66/shape_offset = Vector2( 0, 0 )
66/shape_transform = Transform2D( 1, 0, 0, 1, 0, 0 )
66/shape_one_way = false
66/shape_one_way_margin = 0.0
66/shapes = [  ]
66/z_index = 0
67/name = "InteriorFurnitures.png 67"
67/texture = ExtResource( 1 )
67/tex_offset = Vector2( 0, 0 )
67/modulate = Color( 1, 1, 1, 1 )
67/region = Rect2( 480, 736, 32, 96 )
67/tile_mode = 0
67/occluder_offset = Vector2( 0, 0 )
67/navigation_offset = Vector2( 0, 0 )
67/shape_offset = Vector2( 0, 0 )
67/shape_transform = Transform2D( 1, 0, 0, 1, 0, 0 )
67/shape_one_way = false
67/shape_one_way_margin = 0.0
67/shapes = [  ]
67/z_index = 0
68/name = "InteriorFurnitures.png 68"
68/texture = ExtResource( 1 )
68/tex_offset = Vector2( 0, 0 )
68/modulate = Color( 1, 1, 1, 1 )
68/region = Rect2( 0, 864, 32, 32 )
68/tile_mode = 0
68/occluder_offset = Vector2( 0, 0 )
68/navigation_offset = Vector2( 0, 0 )
68/shape_offset = Vector2( 0, 0 )
68/shape_transform = Transform2D( 1, 0, 0, 1, 0, 0 )
68/shape_one_way = false
68/shape_one_way_margin = 0.0
68/shapes = [  ]
68/z_index = 0
69/name = "InteriorFurnitures.png 69"
69/texture = ExtResource( 1 )
69/tex_offset = Vector2( 0, 0 )
69/modulate = Color( 1, 1, 1, 1 )
69/region = Rect2( 32, 864, 32, 32 )
69/tile_mode = 0
69/occluder_offset = Vector2( 0, 0 )
69/navigation_offset = Vector2( 0, 0 )
69/shape_offset = Vector2( 0, 0 )
69/shape_transform = Transform2D( 1, 0, 0, 1, 0, 0 )
69/shape_one_way = false
69/shape_one_way_margin = 0.0
69/shapes = [  ]
69/z_index = 0
70/name = "InteriorFurnitures.png 70"
70/texture = ExtResource( 1 )
70/tex_offset = Vector2( 0, 0 )
70/modulate = Color( 1, 1, 1, 1 )
70/region = Rect2( 64, 864, 32, 32 )
70/tile_mode = 0
70/occluder_offset = Vector2( 0, 0 )
70/navigation_offset = Vector2( 0, 0 )
70/shape_offset = Vector2( 0, 0 )
70/shape_transform = Transform2D( 1, 0, 0, 1, 0, 0 )
70/shape_one_way = false
70/shape_one_way_margin = 0.0
70/shapes = [  ]
70/z_index = 0
71/name = "InteriorFurnitures.png 71"
71/texture = ExtResource( 1 )
71/tex_offset = Vector2( 0, 0 )
71/modulate = Color( 1, 1, 1, 1 )
71/region = Rect2( 0, 896, 32, 32 )
71/tile_mode = 0
71/occluder_offset = Vector2( 0, 0 )
71/navigation_offset = Vector2( 0, 0 )
71/shape_offset = Vector2( 0, 0 )
71/shape_transform = Transform2D( 1, 0, 0, 1, 0, 0 )
71/shape_one_way = false
71/shape_one_way_margin = 0.0
71/shapes = [  ]
71/z_index = 0
72/name = "InteriorFurnitures.png 72"
72/texture = ExtResource( 1 )
72/tex_offset = Vector2( 0, 0 )
72/modulate = Color( 1, 1, 1, 1 )
72/region = Rect2( 32, 896, 32, 32 )
72/tile_mode = 0
72/occluder_offset = Vector2( 0, 0 )
72/navigation_offset = Vector2( 0, 0 )
72/shape_offset = Vector2( 0, 0 )
72/shape_transform = Transform2D( 1, 0, 0, 1, 0, 0 )
72/shape_one_way = false
72/shape_one_way_margin = 0.0
72/shapes = [  ]
72/z_index = 0
73/name = "InteriorFurnitures.png 73"
73/texture = ExtResource( 1 )
73/tex_offset = Vector2( 0, 0 )
73/modulate = Color( 1, 1, 1, 1 )
73/region = Rect2( 64, 896, 32, 32 )
73/tile_mode = 0
73/occluder_offset = Vector2( 0, 0 )
73/navigation_offset = Vector2( 0, 0 )
73/shape_offset = Vector2( 0, 0 )
73/shape_transform = Transform2D( 1, 0, 0, 1, 0, 0 )
73/shape_one_way = false
73/shape_one_way_margin = 0.0
73/shapes = [  ]
73/z_index = 0
74/name = "InteriorFurnitures.png 74"
74/texture = ExtResource( 1 )
74/tex_offset = Vector2( 0, 0 )
74/modulate = Color( 1, 1, 1, 1 )
74/region = Rect2( 32, 832, 32, 32 )
74/tile_mode = 0
74/occluder_offset = Vector2( 0, 0 )
74/navigation_offset = Vector2( 0, 0 )
74/shape_offset = Vector2( 0, 0 )
74/shape_transform = Transform2D( 1, 0, 0, 1, 0, 0 )
74/shape_one_way = false
74/shape_one_way_margin = 0.0
74/shapes = [  ]
74/z_index = 0
75/name = "InteriorFurnitures.png 75"
75/texture = ExtResource( 1 )
75/tex_offset = Vector2( 0, 0 )
75/modulate = Color( 1, 1, 1, 1 )
75/region = Rect2( 0, 832, 32, 32 )
75/tile_mode = 0
75/occluder_offset = Vector2( 0, 0 )
75/navigation_offset = Vector2( 0, 0 )
75/shape_offset = Vector2( 0, 0 )
75/shape_transform = Transform2D( 1, 0, 0, 1, 0, 0 )
75/shape_one_way = false
75/shape_one_way_margin = 0.0
75/shapes = [  ]
75/z_index = 0
76/name = "InteriorFurnitures.png 76"
76/texture = ExtResource( 1 )
76/tex_offset = Vector2( 0, 0 )
76/modulate = Color( 1, 1, 1, 1 )
76/region = Rect2( 64, 832, 32, 32 )
76/tile_mode = 0
76/occluder_offset = Vector2( 0, 0 )
76/navigation_offset = Vector2( 0, 0 )
76/shape_offset = Vector2( 0, 0 )
76/shape_transform = Transform2D( 1, 0, 0, 1, 0, 0 )
76/shape_one_way = false
76/shape_one_way_margin = 0.0
76/shapes = [  ]
76/z_index = 0
77/name = "InteriorFurnitures2.png 77"
77/texture = ExtResource( 2 )
77/tex_offset = Vector2( 0, 0 )
77/modulate = Color( 1, 1, 1, 1 )
77/region = Rect2( 256, 0, 64, 64 )
77/tile_mode = 0
77/occluder_offset = Vector2( 0, 0 )
77/navigation_offset = Vector2( 0, 0 )
77/shape_offset = Vector2( 0, 0 )
77/shape_transform = Transform2D( 1, 0, 0, 1, 0, 0 )
77/shape_one_way = false
77/shape_one_way_margin = 0.0
77/shapes = [  ]
77/z_index = 0
78/name = "InteriorFurnitures2.png 78"
78/texture = ExtResource( 2 )
78/tex_offset = Vector2( 0, 0 )
78/modulate = Color( 1, 1, 1, 1 )
78/region = Rect2( 320, 0, 64, 64 )
78/tile_mode = 0
78/occluder_offset = Vector2( 0, 0 )
78/navigation_offset = Vector2( 0, 0 )
78/shape_offset = Vector2( 0, 0 )
78/shape_transform = Transform2D( 1, 0, 0, 1, 0, 0 )
78/shape_one_way = false
78/shape_one_way_margin = 0.0
78/shapes = [  ]
78/z_index = 0
79/name = "InteriorFurnitures2.png 79"
79/texture = ExtResource( 2 )
79/tex_offset = Vector2( 0, 0 )
79/modulate = Color( 1, 1, 1, 1 )
79/region = Rect2( 384, 0, 64, 64 )
79/tile_mode = 0
79/occluder_offset = Vector2( 0, 0 )
79/navigation_offset = Vector2( 0, 0 )
79/shape_offset = Vector2( 0, 0 )
79/shape_transform = Transform2D( 1, 0, 0, 1, 0, 0 )
79/shape_one_way = false
79/shape_one_way_margin = 0.0
79/shapes = [  ]
79/z_index = 0
80/name = "InteriorFurnitures2.png 80"
80/texture = ExtResource( 2 )
80/tex_offset = Vector2( 0, 0 )
80/modulate = Color( 1, 1, 1, 1 )
80/region = Rect2( 448, 0, 64, 64 )
80/tile_mode = 0
80/occluder_offset = Vector2( 0, 0 )
80/navigation_offset = Vector2( 0, 0 )
80/shape_offset = Vector2( 0, 0 )
80/shape_transform = Transform2D( 1, 0, 0, 1, 0, 0 )
80/shape_one_way = false
80/shape_one_way_margin = 0.0
80/shapes = [  ]
80/z_index = 0
81/name = "InteriorFurnitures2.png 81"
81/texture = ExtResource( 2 )
81/tex_offset = Vector2( 0, 0 )
81/modulate = Color( 1, 1, 1, 1 )
81/region = Rect2( 512, 0, 64, 64 )
81/tile_mode = 0
81/occluder_offset = Vector2( 0, 0 )
81/navigation_offset = Vector2( 0, 0 )
81/shape_offset = Vector2( 0, 0 )
81/shape_transform = Transform2D( 1, 0, 0, 1, 0, 0 )
81/shape_one_way = false
81/shape_one_way_margin = 0.0
81/shapes = [  ]
81/z_index = 0
82/name = "InteriorFurnitures2.png 82"
82/texture = ExtResource( 2 )
82/tex_offset = Vector2( 0, 0 )
82/modulate = Color( 1, 1, 1, 1 )
82/region = Rect2( 576, 0, 64, 64 )
82/tile_mode = 0
82/occluder_offset = Vector2( 0, 0 )
82/navigation_offset = Vector2( 0, 0 )
82/shape_offset = Vector2( 0, 0 )
82/shape_transform = Transform2D( 1, 0, 0, 1, 0, 0 )
82/shape_one_way = false
82/shape_one_way_margin = 0.0
82/shapes = [  ]
82/z_index = 0
83/name = "InteriorFurnitures2.png 83"
83/texture = ExtResource( 2 )
83/tex_offset = Vector2( 0, 0 )
83/modulate = Color( 1, 1, 1, 1 )
83/region = Rect2( 576, 64, 32, 64 )
83/tile_mode = 0
83/occluder_offset = Vector2( 0, 0 )
83/navigation_offset = Vector2( 0, 0 )
83/shape_offset = Vector2( 0, 0 )
83/shape_transform = Transform2D( 1, 0, 0, 1, 0, 0 )
83/shape_one_way = false
83/shape_one_way_margin = 0.0
83/shapes = [  ]
83/z_index = 0
84/name = "InteriorFurnitures2.png 84"
84/texture = ExtResource( 2 )
84/tex_offset = Vector2( 0, 0 )
84/modulate = Color( 1, 1, 1, 1 )
84/region = Rect2( 384, 64, 64, 64 )
84/tile_mode = 0
84/occluder_offset = Vector2( 0, 0 )
84/navigation_offset = Vector2( 0, 0 )
84/shape_offset = Vector2( 0, 0 )
84/shape_transform = Transform2D( 1, 0, 0, 1, 0, 0 )
84/shape_one_way = false
84/shape_one_way_margin = 0.0
84/shapes = [  ]
84/z_index = 0
85/name = "InteriorFurnitures2.png 85"
85/texture = ExtResource( 2 )
85/tex_offset = Vector2( 0, 0 )
85/modulate = Color( 1, 1, 1, 1 )
85/region = Rect2( 896, 128, 32, 64 )
85/tile_mode = 0
85/occluder_offset = Vector2( 0, 0 )
85/navigation_offset = Vector2( 0, 0 )
85/shape_offset = Vector2( 0, 0 )
85/shape_transform = Transform2D( 1, 0, 0, 1, 0, 0 )
85/shape_one_way = false
85/shape_one_way_margin = 0.0
85/shapes = [  ]
85/z_index = 0
86/name = "InteriorFurnitures.png 86"
86/texture = ExtResource( 1 )
86/tex_offset = Vector2( 0, 0 )
86/modulate = Color( 1, 1, 1, 1 )
86/region = Rect2( 512, 416, 32, 64 )
86/tile_mode = 0
86/occluder_offset = Vector2( 0, 0 )
86/navigation_offset = Vector2( 0, 0 )
86/shape_offset = Vector2( 0, 0 )
86/shape_transform = Transform2D( 1, 0, 0, 1, 0, 0 )
86/shape_one_way = false
86/shape_one_way_margin = 0.0
86/shapes = [  ]
86/z_index = 0
87/name = "InteriorFurnitures.png 87"
87/texture = ExtResource( 1 )
87/tex_offset = Vector2( 0, 0 )
87/modulate = Color( 1, 1, 1, 1 )
87/region = Rect2( 512, 480, 32, 96 )
87/tile_mode = 0
87/occluder_offset = Vector2( 0, 0 )
87/navigation_offset = Vector2( 0, 0 )
87/shape_offset = Vector2( 0, 0 )
87/shape_transform = Transform2D( 1, 0, 0, 1, 0, 0 )
87/shape_one_way = false
87/shape_one_way_margin = 0.0
87/shapes = [  ]
87/z_index = 0
88/name = "InteriorFurnitures.png 88"
88/texture = ExtResource( 1 )
88/tex_offset = Vector2( 0, 0 )
88/modulate = Color( 1, 1, 1, 1 )
88/region = Rect2( 544, 416, 32, 32 )
88/tile_mode = 0
88/occluder_offset = Vector2( 0, 0 )
88/navigation_offset = Vector2( 0, 0 )
88/shape_offset = Vector2( 0, 0 )
88/shape_transform = Transform2D( 1, 0, 0, 1, 0, 0 )
88/shape_one_way = false
88/shape_one_way_margin = 0.0
88/shapes = [  ]
88/z_index = 0
89/name = "InteriorFurnitures.png 89"
89/texture = ExtResource( 1 )
89/tex_offset = Vector2( 0, 0 )
89/modulate = Color( 1, 1, 1, 1 )
89/region = Rect2( 544, 448, 32, 32 )
89/tile_mode = 0
89/occluder_offset = Vector2( 0, 0 )
89/navigation_offset = Vector2( 0, 0 )
89/shape_offset = Vector2( 0, 0 )
89/shape_transform = Transform2D( 1, 0, 0, 1, 0, 0 )
89/shape_one_way = false
89/shape_one_way_margin = 0.0
89/shapes = [  ]
89/z_index = 0
90/name = "InteriorFurnitures.png 90"
90/texture = ExtResource( 1 )
90/tex_offset = Vector2( 0, 0 )
90/modulate = Color( 1, 1, 1, 1 )
90/region = Rect2( 576, 384, 32, 64 )
90/tile_mode = 0
90/occluder_offset = Vector2( 0, 0 )
90/navigation_offset = Vector2( 0, 0 )
90/shape_offset = Vector2( 0, 0 )
90/shape_transform = Transform2D( 1, 0, 0, 1, 0, 0 )
90/shape_one_way = false
90/shape_one_way_margin = 0.0
90/shapes = [  ]
90/z_index = 0
91/name = "InteriorFurnitures.png 91"
91/texture = ExtResource( 1 )
91/tex_offset = Vector2( 0, 0 )
91/modulate = Color( 1, 1, 1, 1 )
91/region = Rect2( 576, 448, 32, 32 )
91/tile_mode = 0
91/occluder_offset = Vector2( 0, 0 )
91/navigation_offset = Vector2( 0, 0 )
91/shape_offset = Vector2( 0, 0 )
91/shape_transform = Transform2D( 1, 0, 0, 1, 0, 0 )
91/shape_one_way = false
91/shape_one_way_margin = 0.0
91/shapes = [  ]
91/z_index = 0
92/name = "InteriorFurnitures.png 92"
92/texture = ExtResource( 1 )
92/tex_offset = Vector2( 0, 0 )
92/modulate = Color( 1, 1, 1, 1 )
92/region = Rect2( 608, 256, 64, 64 )
92/tile_mode = 0
92/occluder_offset = Vector2( 0, 0 )
92/navigation_offset = Vector2( 0, 0 )
92/shape_offset = Vector2( 0, 0 )
92/shape_transform = Transform2D( 1, 0, 0, 1, 0, 0 )
92/shape_one_way = false
92/shape_one_way_margin = 0.0
92/shapes = [  ]
92/z_index = 0
93/name = "InteriorFurnitures.png 93"
93/texture = ExtResource( 1 )
93/tex_offset = Vector2( 0, 0 )
93/modulate = Color( 1, 1, 1, 1 )
93/region = Rect2( 672, 192, 32, 64 )
93/tile_mode = 0
93/occluder_offset = Vector2( 0, 0 )
93/navigation_offset = Vector2( 0, 0 )
93/shape_offset = Vector2( 0, 0 )
93/shape_transform = Transform2D( 1, 0, 0, 1, 0, 0 )
93/shape_one_way = false
93/shape_one_way_margin = 0.0
93/shapes = [  ]
93/z_index = 0
94/name = "InteriorFurnitures.png 94"
94/texture = ExtResource( 1 )
94/tex_offset = Vector2( 0, 0 )
94/modulate = Color( 1, 1, 1, 1 )
94/region = Rect2( 736, 192, 32, 64 )
94/tile_mode = 0
94/occluder_offset = Vector2( 0, 0 )
94/navigation_offset = Vector2( 0, 0 )
94/shape_offset = Vector2( 0, 0 )
94/shape_transform = Transform2D( 1, 0, 0, 1, 0, 0 )
94/shape_one_way = false
94/shape_one_way_margin = 0.0
94/shapes = [  ]
94/z_index = 0
95/name = "InteriorFurnitures.png 95"
95/texture = ExtResource( 1 )
95/tex_offset = Vector2( 0, 0 )
95/modulate = Color( 1, 1, 1, 1 )
95/region = Rect2( 768, 192, 32, 64 )
95/tile_mode = 0
95/occluder_offset = Vector2( 0, 0 )
95/navigation_offset = Vector2( 0, 0 )
95/shape_offset = Vector2( 0, 0 )
95/shape_transform = Transform2D( 1, 0, 0, 1, 0, 0 )
95/shape_one_way = false
95/shape_one_way_margin = 0.0
95/shapes = [  ]
95/z_index = 0
96/name = "InteriorFurnitures.png 96"
96/texture = ExtResource( 1 )
96/tex_offset = Vector2( 0, 0 )
96/modulate = Color( 1, 1, 1, 1 )
96/region = Rect2( 800, 192, 32, 64 )
96/tile_mode = 0
96/occluder_offset = Vector2( 0, 0 )
96/navigation_offset = Vector2( 0, 0 )
96/shape_offset = Vector2( 0, 0 )
96/shape_transform = Transform2D( 1, 0, 0, 1, 0, 0 )
96/shape_one_way = false
96/shape_one_way_margin = 0.0
96/shapes = [  ]
96/z_index = 0
97/name = "InteriorFurnitures.png 97"
97/texture = ExtResource( 1 )
97/tex_offset = Vector2( 0, 0 )
97/modulate = Color( 1, 1, 1, 1 )
97/region = Rect2( 832, 192, 32, 64 )
97/tile_mode = 0
97/occluder_offset = Vector2( 0, 0 )
97/navigation_offset = Vector2( 0, 0 )
97/shape_offset = Vector2( 0, 0 )
97/shape_transform = Transform2D( 1, 0, 0, 1, 0, 0 )
97/shape_one_way = false
97/shape_one_way_margin = 0.0
97/shapes = [  ]
97/z_index = 0
98/name = "InteriorFurnitures.png 98"
98/texture = ExtResource( 1 )
98/tex_offset = Vector2( 0, 0 )
98/modulate = Color( 1, 1, 1, 1 )
98/region = Rect2( 864, 192, 32, 32 )
98/tile_mode = 0
98/occluder_offset = Vector2( 0, 0 )
98/navigation_offset = Vector2( 0, 0 )
98/shape_offset = Vector2( 0, 0 )
98/shape_transform = Transform2D( 1, 0, 0, 1, 0, 0 )
98/shape_one_way = false
98/shape_one_way_margin = 0.0
98/shapes = [  ]
98/z_index = 0
99/name = "InteriorFurnitures.png 99"
99/texture = ExtResource( 1 )
99/tex_offset = Vector2( 0, 0 )
99/modulate = Color( 1, 1, 1, 1 )
99/region = Rect2( 576, 672, 32, 96 )
99/tile_mode = 0
99/occluder_offset = Vector2( 0, 0 )
99/navigation_offset = Vector2( 0, 0 )
99/shape_offset = Vector2( 0, 0 )
99/shape_transform = Transform2D( 1, 0, 0, 1, 0, 0 )
99/shape_one_way = false
99/shape_one_way_margin = 0.0
99/shapes = [  ]
99/z_index = 0
100/name = "InteriorFurnitures.png 100"
100/texture = ExtResource( 1 )
100/tex_offset = Vector2( 0, 0 )
100/modulate = Color( 1, 1, 1, 1 )
100/region = Rect2( 608, 672, 32, 96 )
100/tile_mode = 0
100/occluder_offset = Vector2( 0, 0 )
100/navigation_offset = Vector2( 0, 0 )
100/shape_offset = Vector2( 0, 0 )
100/shape_transform = Transform2D( 1, 0, 0, 1, 0, 0 )
100/shape_one_way = false
100/shape_one_way_margin = 0.0
100/shapes = [  ]
100/z_index = 0
101/name = "InteriorFurnitures.png 101"
101/texture = ExtResource( 1 )
101/tex_offset = Vector2( 0, 0 )
101/modulate = Color( 1, 1, 1, 1 )
101/region = Rect2( 640, 672, 32, 64 )
101/tile_mode = 0
101/occluder_offset = Vector2( 0, 0 )
101/navigation_offset = Vector2( 0, 0 )
101/shape_offset = Vector2( 0, 0 )
101/shape_transform = Transform2D( 1, 0, 0, 1, 0, 0 )
101/shape_one_way = false
101/shape_one_way_margin = 0.0
101/shapes = [  ]
101/z_index = 0
102/name = "InteriorFurnitures.png 102"
102/texture = ExtResource( 1 )
102/tex_offset = Vector2( 0, 0 )
102/modulate = Color( 1, 1, 1, 1 )
102/region = Rect2( 640, 416, 32, 32 )
102/tile_mode = 0
102/occluder_offset = Vector2( 0, 0 )
102/navigation_offset = Vector2( 0, 0 )
102/shape_offset = Vector2( 0, 0 )
102/shape_transform = Transform2D( 1, 0, 0, 1, 0, 0 )
102/shape_one_way = false
102/shape_one_way_margin = 0.0
102/shapes = [  ]
102/z_index = 0
103/name = "InteriorFurnitures.png 103"
103/texture = ExtResource( 1 )
103/tex_offset = Vector2( 0, 0 )
103/modulate = Color( 1, 1, 1, 1 )
103/region = Rect2( 960, 288, 32, 32 )
103/tile_mode = 0
103/occluder_offset = Vector2( 0, 0 )
103/navigation_offset = Vector2( 0, 0 )
103/shape_offset = Vector2( 0, 0 )
103/shape_transform = Transform2D( 1, 0, 0, 1, 0, 0 )
103/shape_one_way = false
103/shape_one_way_margin = 0.0
103/shapes = [  ]
103/z_index = 0
104/name = "InteriorFurnitures.png 104"
104/texture = ExtResource( 1 )
104/tex_offset = Vector2( 0, 0 )
104/modulate = Color( 1, 1, 1, 1 )
104/region = Rect2( 992, 288, 32, 32 )
104/tile_mode = 0
104/occluder_offset = Vector2( 0, 0 )
104/navigation_offset = Vector2( 0, 0 )
104/shape_offset = Vector2( 0, 0 )
104/shape_transform = Transform2D( 1, 0, 0, 1, 0, 0 )
104/shape_one_way = false
104/shape_one_way_margin = 0.0
104/shapes = [  ]
104/z_index = 0
105/name = "InteriorFurnitures.png 105"
105/texture = ExtResource( 1 )
105/tex_offset = Vector2( 0, 0 )
105/modulate = Color( 1, 1, 1, 1 )
105/region = Rect2( 960, 320, 32, 32 )
105/tile_mode = 0
105/occluder_offset = Vector2( 0, 0 )
105/navigation_offset = Vector2( 0, 0 )
105/shape_offset = Vector2( 0, 0 )
105/shape_transform = Transform2D( 1, 0, 0, 1, 0, 0 )
105/shape_one_way = false
105/shape_one_way_margin = 0.0
105/shapes = [  ]
105/z_index = 0
106/name = "InteriorFurnitures.png 106"
106/texture = ExtResource( 1 )
106/tex_offset = Vector2( 0, 0 )
106/modulate = Color( 1, 1, 1, 1 )
106/region = Rect2( 992, 320, 32, 32 )
106/tile_mode = 0
106/occluder_offset = Vector2( 0, 0 )
106/navigation_offset = Vector2( 0, 0 )
106/shape_offset = Vector2( 0, 0 )
106/shape_transform = Transform2D( 1, 0, 0, 1, 0, 0 )
106/shape_one_way = false
106/shape_one_way_margin = 0.0
106/shapes = [  ]
106/z_index = 0
107/name = "InteriorFurnitures.png 107"
107/texture = ExtResource( 1 )
107/tex_offset = Vector2( 0, 0 )
107/modulate = Color( 1, 1, 1, 1 )
107/region = Rect2( 704, 960, 32, 32 )
107/tile_mode = 0
107/occluder_offset = Vector2( 0, 0 )
107/navigation_offset = Vector2( 0, 0 )
107/shape_offset = Vector2( 0, 0 )
107/shape_transform = Transform2D( 1, 0, 0, 1, 0, 0 )
107/shape_one_way = false
107/shape_one_way_margin = 0.0
107/shapes = [  ]
107/z_index = 0
108/name = "InteriorFurnitures2.png 108"
108/texture = ExtResource( 2 )
108/tex_offset = Vector2( 0, 0 )
108/modulate = Color( 1, 1, 1, 1 )
108/region = Rect2( 640, 128, 96, 96 )
108/tile_mode = 0
108/occluder_offset = Vector2( 0, 0 )
108/navigation_offset = Vector2( 0, 0 )
108/shape_offset = Vector2( 0, 0 )
108/shape_transform = Transform2D( 1, 0, 0, 1, 0, 0 )
108/shape_one_way = false
108/shape_one_way_margin = 0.0
108/shapes = [  ]
108/z_index = 0
