[gd_scene load_steps=3 format=2]

[ext_resource path="res://scenes/Rooms/Room.tscn" type="PackedScene" id=1]
[ext_resource path="res://scenes/RoomFurnitures.tres" type="TileSet" id=2]

[node name="Reception" instance=ExtResource( 1 )]

[node name="BG_TileMap" parent="." index="0"]
tile_data = PoolIntArray( 0, -1073741822, 0, 1, 0, 0, 2, 0, 0, 3, 0, 0, 4, 0, 0, 5, 0, 0, 6, 0, 0, 7, 0, 0, 8, 0, 0, 9, 0, 0, 10, 0, 0, 11, 0, 0, 12, 0, 0, 13, 0, 0, 14, 0, 0, 15, 0, 0, 16, 0, 0, 17, 0, 0, 18, 0, 0, 19, 0, 0, 20, 2, 0, 65536, -2147483648, 0, 65537, -2147483642, 0, 65538, -2147483642, 0, 65539, -2147483642, 0, 65540, -2147483642, 0, 65541, -2147483642, 0, 65542, -2147483642, 0, 65543, -2147483642, 0, 65544, -2147483642, 0, 65545, -2147483642, 0, 65546, -2147483642, 0, 65547, -2147483642, 0, 65548, -2147483642, 0, 65549, -2147483642, 0, 65550, -2147483642, 0, 65551, -2147483642, 0, 65552, -2147483642, 0, 65553, -2147483642, 0, 65554, -2147483642, 0, 65555, -2147483642, 0, 65556, -536870912, 0, 131072, -1073741824, 0, 131073, -2147483642, 0, 131074, -2147483642, 0, 131075, -2147483642, 0, 131076, -2147483642, 0, 131077, -2147483642, 0, 131078, -2147483642, 0, 131079, -2147483642, 0, 131080, -2147483642, 0, 131081, -2147483642, 0, 131082, -2147483642, 0, 131083, -2147483642, 0, 131084, -2147483642, 0, 131085, -2147483642, 0, 131086, -2147483642, 0, 131087, -2147483642, 0, 131088, -2147483642, 0, 131089, -2147483642, 0, 131090, -2147483642, 0, 131091, -2147483642, 0, 131092, -1610612736, 0, 196608, -1073741824, 0, 196609, -2147483642, 0, 196610, -2147483642, 0, 196611, -2147483642, 0, 196612, -2147483642, 0, 196613, -2147483642, 0, 196614, -2147483642, 0, 196615, -2147483642, 0, 196616, -2147483642, 0, 196617, -2147483642, 0, 196618, -2147483642, 0, 196619, -2147483642, 0, 196620, -2147483642, 0, 196621, -2147483642, 0, 196622, -2147483642, 0, 196623, -2147483642, 0, 196624, -2147483642, 0, 196625, -2147483642, 0, 196626, -2147483642, 0, 196627, -2147483642, 0, 196628, -1610612736, 0, 262144, -1073741824, 0, 262145, -2147483642, 0, 262146, -2147483642, 0, 262147, -2147483642, 0, 262148, -2147483642, 0, 262149, -2147483642, 0, 262150, -2147483642, 0, 262151, -2147483642, 0, 262152, -2147483642, 0, 262153, -2147483642, 0, 262154, -2147483642, 0, 262155, -2147483642, 0, 262156, -2147483642, 0, 262157, -2147483642, 0, 262158, -2147483642, 0, 262159, -2147483642, 0, 262160, -2147483642, 0, 262161, -2147483642, 0, 262162, -2147483642, 0, 262163, -2147483642, 0, 262164, -536870912, 0, 327680, -1073741824, 0, 327681, -2147483642, 0, 327682, -2147483642, 0, 327683, -2147483642, 0, 327684, -2147483642, 0, 327685, -2147483642, 0, 327686, -2147483642, 0, 327687, -2147483642, 0, 327688, -2147483642, 0, 327689, -2147483642, 0, 327690, -2147483642, 0, 327691, -2147483642, 0, 327692, -2147483642, 0, 327693, -2147483642, 0, 327694, -2147483642, 0, 327695, -2147483642, 0, 327696, -2147483642, 0, 327697, -2147483642, 0, 327698, -2147483642, 0, 327699, -2147483642, 0, 327700, -536870912, 0, 393216, -1073741824, 0, 393217, -2147483642, 0, 393218, -2147483642, 0, 393219, -2147483642, 0, 393220, -2147483642, 0, 393221, -2147483642, 0, 393222, -2147483642, 0, 393223, -2147483642, 0, 393224, -2147483642, 0, 393225, -2147483642, 0, 393226, -2147483642, 0, 393227, -2147483642, 0, 393228, -2147483642, 0, 393229, -2147483642, 0, 393230, -2147483642, 0, 393231, -2147483642, 0, 393232, -2147483642, 0, 393233, -2147483642, 0, 393234, -2147483642, 0, 393235, -2147483642, 0, 393236, -1610612736, 0, 458752, -1073741824, 0, 458753, -2147483642, 0, 458754, -2147483642, 0, 458755, -2147483642, 0, 458756, -2147483642, 0, 458757, -2147483642, 0, 458758, -2147483642, 0, 458759, -2147483642, 0, 458760, -2147483642, 0, 458761, -2147483642, 0, 458762, -2147483642, 0, 458763, -2147483642, 0, 458764, -2147483642, 0, 458765, -2147483642, 0, 458766, -2147483642, 0, 458767, -2147483642, 0, 458768, -2147483642, 0, 458769, -2147483642, 0, 458770, -2147483642, 0, 458771, -2147483642, 0, 458772, -1610612733, 0, 524288, -1073741824, 0, 524289, -2147483642, 0, 524290, -2147483642, 0, 524291, -2147483642, 0, 524292, -2147483642, 0, 524293, -2147483642, 0, 524294, -2147483642, 0, 524295, -2147483642, 0, 524296, -2147483642, 0, 524297, -2147483642, 0, 524298, -2147483642, 0, 524299, -2147483642, 0, 524300, -2147483642, 0, 524301, -2147483642, 0, 524302, -2147483642, 0, 524303, -2147483642, 0, 524304, -2147483642, 0, 524305, -2147483642, 0, 524306, -2147483642, 0, 524307, -2147483642, 0, 524308, -536870912, 0, 589824, -1073741824, 0, 589825, -2147483642, 0, 589826, -2147483642, 0, 589827, -2147483642, 0, 589828, -2147483642, 0, 589829, -2147483642, 0, 589830, -2147483642, 0, 589831, -2147483642, 0, 589832, -2147483642, 0, 589833, -2147483642, 0, 589834, -2147483642, 0, 589835, -2147483642, 0, 589836, -2147483642, 0, 589837, -2147483642, 0, 589838, -2147483642, 0, 589839, -2147483642, 0, 589840, -2147483642, 0, 589841, -2147483642, 0, 589842, -2147483642, 0, 589843, -2147483642, 0, 589844, -1610612736, 0, 655360, -1073741824, 0, 655361, -2147483642, 0, 655362, -2147483642, 0, 655363, -2147483642, 0, 655364, -2147483642, 0, 655365, -2147483642, 0, 655366, -2147483642, 0, 655367, -2147483642, 0, 655368, -2147483642, 0, 655369, -2147483642, 0, 655370, -2147483642, 0, 655371, -2147483642, 0, 655372, -2147483642, 0, 655373, -2147483642, 0, 655374, -2147483642, 0, 655375, -2147483642, 0, 655376, -2147483642, 0, 655377, -2147483642, 0, 655378, -2147483642, 0, 655379, -2147483642, 0, 655380, -1610612736, 0, 720896, -1073741824, 0, 720897, -2147483642, 0, 720898, -2147483642, 0, 720899, -2147483642, 0, 720900, -2147483642, 0, 720901, -2147483642, 0, 720902, -2147483642, 0, 720903, -2147483642, 0, 720904, -2147483642, 0, 720905, -2147483642, 0, 720906, -2147483642, 0, 720907, -2147483642, 0, 720908, -2147483642, 0, 720909, -2147483642, 0, 720910, -2147483642, 0, 720911, -2147483642, 0, 720912, -2147483642, 0, 720913, -2147483642, 0, 720914, -2147483642, 0, 720915, -2147483642, 0, 720916, -1610612736, 0, 786432, -1073741824, 0, 786433, -2147483642, 0, 786434, -2147483642, 0, 786435, -2147483642, 0, 786436, -2147483642, 0, 786437, -2147483642, 0, 786438, -2147483642, 0, 786439, -2147483642, 0, 786440, -2147483642, 0, 786441, -2147483642, 0, 786442, -2147483642, 0, 786443, -2147483642, 0, 786444, -2147483642, 0, 786445, -2147483642, 0, 786446, -2147483642, 0, 786447, -2147483642, 0, 786448, -2147483642, 0, 786449, -2147483642, 0, 786450, -2147483642, 0, 786451, -2147483642, 0, 786452, -1610612736, 0, 851968, -1073741824, 0, 851969, -2147483642, 0, 851970, -2147483642, 0, 851971, -2147483642, 0, 851972, -2147483642, 0, 851973, -2147483642, 0, 851974, -2147483642, 0, 851975, -2147483642, 0, 851976, -2147483642, 0, 851977, -2147483642, 0, 851978, -2147483642, 0, 851979, -2147483642, 0, 851980, -2147483642, 0, 851981, -2147483642, 0, 851982, -2147483642, 0, 851983, -2147483642, 0, 851984, -2147483642, 0, 851985, -2147483642, 0, 851986, -2147483642, 0, 851987, -2147483642, 0, 851988, -1610612736, 0, 917504, 1610612738, 0, 917505, 1610612736, 0, 917506, 1610612736, 0, 917507, 1610612736, 0, 917508, 1610612736, 0, 917509, 1610612736, 0, 917510, 1610612736, 0, 917511, 1073741824, 0, 917512, 1073741824, 0, 917513, 1073741824, 0, 917514, 1073741824, 0, 917515, 1073741824, 0, 917516, 1073741824, 0, 917517, 1073741824, 0, 917518, 1073741824, 0, 917519, 1073741824, 0, 917520, 1073741824, 0, 917521, 1073741824, 0, 917522, 1073741824, 0, 917523, 1073741824, 0, 917524, -1610612734, 0 )

[node name="Meubles" type="TileMap" parent="." index="2"]
scale = Vector2( 0.5, 0.5 )
tile_set = ExtResource( 2 )
cell_size = Vector2( 32, 32 )
format = 1
tile_data = PoolIntArray( 21, 536870932, 0, 33, 50, 0, 35, 99, 0, 36, 50, 0, 38, 50, 0, 65558, 536870974, 0, 65568, 536870918, 0, 65570, 91, 0, 65573, 91, 0, 131104, 536870918, 0, 131111, 90, 0, 196613, 536870944, 0, 196618, 536870953, 0, 196640, 536870918, 0, 196644, 536870971, 0, 196647, 90, 0, 262176, 536870918, 0, 262179, 56, 0, 262183, 90, 0, 327683, 536870979, 0, 327689, 536870979, 0, 327712, 536870918, 0, 327719, 90, 0, 393248, 536870918, 0, 393249, 6, 0, 393250, 6, 0, 393251, 6, 0, 393252, 6, 0, 393253, 6, 0, 393254, 6, 0, 393255, 6, 0, 720899, 536871012, 0, 720901, 536870953, 0, 720904, 536871012, 0, 720906, 536870953, 0, 720909, 536871012, 0, 720911, 536870953, 0, 720914, 536871012, 0, 720916, 536870953, 0, 720919, 536871012, 0, 720921, 536870953, 0, 720924, 536871012, 0, 720926, 536870953, 0, 720929, 536871012, 0, 720934, 536871012, 0, 917506, 536871019, 0, 917507, 536871019, 0, 917508, 536871019, 0, 917509, 536871019, 0, 917510, 536871019, 0, 917511, 536871019, 0, 917512, 536871019, 0, 917513, 536871019, 0, 917514, 536871019, 0, 917515, 536871019, 0, 917516, 536871019, 0, 917517, 536871019, 0, 917518, 536871019, 0, 917519, 536871019, 0, 917520, 536871019, 0, 917521, 536871019, 0, 917522, 536871019, 0, 917523, 536871019, 0, 917524, 536871019, 0, 917525, 536871019, 0, 917526, 536871019, 0, 917527, 536871019, 0, 917528, 536871019, 0, 917529, 536871019, 0, 917530, 536871019, 0, 917531, 536871019, 0, 917532, 536871019, 0, 917533, 536871019, 0, 917534, 536871019, 0, 917535, 536871019, 0, 917536, 536871019, 0, 917537, 536871019, 0, 917538, 536871019, 0, 917539, 536871019, 0, 917540, 536871019, 0, 917541, 536871019, 0, 917542, 536871019, 0, 917543, 536871019, 0, 983042, 536871019, 0, 983043, 536871019, 0, 983044, 536871019, 0, 983045, 536871019, 0, 983046, 536871019, 0, 983047, 536871019, 0, 983048, 536871019, 0, 983049, 536871019, 0, 983050, 536871019, 0, 983051, 536871019, 0, 983052, 536871019, 0, 983053, 536871019, 0, 983054, 536871019, 0, 983055, 536871019, 0, 983056, 536871019, 0, 983057, 536871019, 0, 983058, 536871019, 0, 983059, 536871019, 0, 983060, 536871019, 0, 983061, 536871019, 0, 983062, 536871019, 0, 983063, 536871019, 0, 983064, 536871019, 0, 983065, 536871019, 0, 983066, 536871019, 0, 983067, 536871019, 0, 983068, 536871019, 0, 983069, 536871019, 0, 983070, 536871019, 0, 983071, 536871019, 0, 983072, 536871019, 0, 983073, 536871019, 0, 983074, 536871019, 0, 983075, 536871019, 0, 983076, 536871019, 0, 983077, 536871019, 0, 983078, 536871019, 0, 983079, 536871019, 0, 1310738, 108, 0, 1310741, 108, 0, 1310744, 108, 0, 1310747, 108, 0, 1310750, 108, 0, 1441793, -2147483642, 0, 1441794, -2147483642, 0, 1441795, -2147483642, 0, 1441796, -2147483642, 0, 1441797, -2147483642, 0, 1441798, -2147483642, 0, 1441799, -2147483642, 0, 1441800, -2147483642, 0, 1441801, -2147483642, 0, 1441802, -2147483642, 0, 1507338, -2147483642, 0, 1507346, 108, 0, 1507349, 108, 0, 1507352, 108, 0, 1507355, 108, 0, 1507358, 108, 0, 1572874, -2147483642, 0, 1638402, 1073741916, 0, 1638410, -2147483642, 0, 1703938, 1073741916, 0, 1703939, 1073741916, 0, 1703946, -2147483642, 0, 1769477, 1073741921, 0, 1769478, 1073741921, 0, 1769479, 1073741921, 0, 1769480, 1073741921, 0, 1769481, 1073741921, 0, 1769482, -2147483642, 0 )

[node name="Meubles2" type="TileMap" parent="." index="3"]
scale = Vector2( 0.5, 0.5 )
tile_set = ExtResource( 2 )
cell_size = Vector2( 32, 32 )
format = 1
tile_data = PoolIntArray( 21, 536870932, 0, 65539, 536871015, 0, 65540, 536871013, 0, 65541, 536871016, 0, 65542, 536871013, 0, 65543, 536871015, 0, 65544, 536871013, 0, 65545, 536871018, 0, 65558, 536870974, 0, 131104, 88, 0, 196613, 536870944, 0, 327683, 536870978, 0, 327685, 536870946, 0, 327689, 536870977, 0, 393248, 88, 0, 393252, 88, 0, 393255, 88, 0, 720899, 536871012, 0, 720901, 536870953, 0, 720904, 536871012, 0, 720906, 536870953, 0, 720909, 536871012, 0, 720911, 536870953, 0, 720914, 536871012, 0, 720916, 536870953, 0, 720919, 536871012, 0, 720921, 536870953, 0, 720924, 536871012, 0, 720929, 536871012, 0, 917506, 536871019, 0, 917507, 536871019, 0, 917508, 536871019, 0, 917509, 536871019, 0, 917510, 536871019, 0, 917511, 536871019, 0, 917512, 536871019, 0, 917513, 536871019, 0, 917514, 536871019, 0, 917515, 536871019, 0, 917516, 536871019, 0, 917517, 536871019, 0, 917518, 536871019, 0, 917519, 536871019, 0, 917520, 536871019, 0, 917521, 536871019, 0, 917522, 536871019, 0, 917523, 536871019, 0, 917524, 536871019, 0, 917525, 536871019, 0, 917526, 536871019, 0, 917527, 536871019, 0, 917528, 536871019, 0, 917529, 536871019, 0, 917530, 536871019, 0, 917531, 536871019, 0, 917532, 536871019, 0, 917533, 536871019, 0, 917534, 536871019, 0, 917535, 536871019, 0, 917536, 536871019, 0, 917537, 536871019, 0, 917538, 536871019, 0, 917539, 536871019, 0, 917540, 536871019, 0, 917541, 536871019, 0, 917542, 536871019, 0, 917543, 536871019, 0, 983042, 536871019, 0, 983043, 536871012, 0, 983044, 536871019, 0, 983046, 536870953, 0, 983047, 536871019, 0, 983048, 536871012, 0, 983049, 536871019, 0, 983051, 536870953, 0, 983052, 536871019, 0, 983053, 536871012, 0, 983054, 536871019, 0, 983055, 536871019, 0, 983056, 536870953, 0, 983057, 536871019, 0, 983058, 536871012, 0, 983059, 536871019, 0, 983060, 536871019, 0, 983061, 536870953, 0, 983062, 536871019, 0, 983063, 536871012, 0, 983064, 536871019, 0, 983065, 536871019, 0, 983066, 536870953, 0, 983067, 536871019, 0, 983068, 536871012, 0, 983069, 536871019, 0, 983070, 536871019, 0, 983071, 536870953, 0, 983072, 536871019, 0, 983073, 536871012, 0, 983074, 536871019, 0, 983075, 536871019, 0, 983076, 536870953, 0, 983077, 536871019, 0, 983078, 536871012, 0, 983079, 536871019, 0, 1114132, 87, 0, 1114135, 87, 0, 1114138, 87, 0, 1114141, 87, 0, 1114144, 87, 0, 1179665, 87, 0, 1179681, 87, 0, 1376273, 87, 0, 1376289, 87, 0, 1507361, 87, 0, 1572881, 87, 0, 1572884, 87, 0, 1572887, 87, 0, 1572890, 87, 0, 1572893, 87, 0, 1572896, 87, 0 )
