[gd_scene load_steps=3 format=2]

[ext_resource path="res://scenes/Rooms/Room.tscn" type="PackedScene" id=1]
[ext_resource path="res://scenes/RoomFurnitures.tres" type="TileSet" id=2]

[node name="Room" instance=ExtResource( 1 )]

[node name="BG_TileMap" parent="." index="0"]
tile_data = PoolIntArray( 0, -1073741822, 0, 1, 0, 0, 2, 536870912, 0, 3, 1, 0, 4, 536870912, 0, 5, 536870912, 0, 6, 536870912, 0, 7, -536870910, 0, 65536, -1073741823, 0, 65537, -1610612730, 0, 65538, -1610612730, 0, 65539, -1610612730, 0, 65540, -1610612730, 0, 65541, -1610612730, 0, 65542, -1610612730, 0, 65543, -536870912, 0, 131072, -2147483648, 0, 131073, -1610612730, 0, 131074, -1610612730, 0, 131075, -1610612730, 0, 131076, -1610612730, 0, 131077, -1610612730, 0, 131078, -1610612730, 0, 131079, -1610612733, 0, 196608, -1073741824, 0, 196609, -1610612730, 0, 196610, -1610612730, 0, 196611, -1610612730, 0, 196612, -1610612730, 0, 196613, -1610612730, 0, 196614, -1610612730, 0, 196615, -1610612736, 0, 262144, -2147483646, 0, 262145, 1073741824, 0, 262146, 1610612739, 0, 262147, 1073741824, 0, 262148, 1073741824, 0, 262149, 1073741824, 0, 262150, 1610612736, 0, 262151, -1610612734, 0 )

[node name="Meubles" type="TileMap" parent="." index="2"]
position = Vector2( -268.367, -651.172 )
scale = Vector2( 0.5, 0.5 )
tile_set = ExtResource( 2 )
cell_size = Vector2( 32, 32 )
format = 1
tile_data = PoolIntArray( 2621464, 536870999, 0, 2621467, 536870999, 0, 2686999, 536870953, 0, 2687001, 536870917, 0, 2687004, 536871008, 0, 2752531, 536871002, 0, 2818078, -536870813, 0, 2949142, 536870958, 0, 2949143, 536870965, 0, 2949144, 536870965, 0, 2949145, 536870957, 0, 3014678, 536870958, 0, 3014679, 536870965, 0, 3014680, 536870965, 0, 3014681, 536870957, 0, 3080211, 1610612777, 0, 3145751, 1610612786, 0, 3145752, 1610612786, 0, 3145753, 1610612786, 0, 3145754, 1610612786, 0, 3145755, 1610612786, 0, 3145756, 1610612786, 0, 3145757, 1610612786, 0 )
