[gd_scene load_steps=3 format=2]

[ext_resource path="res://scenes/Rooms/Room.tscn" type="PackedScene" id=1]
[ext_resource path="res://scenes/RoomFurnitures.tres" type="TileSet" id=2]

[node name="Room2" instance=ExtResource( 1 )]

[node name="BG_TileMap" parent="." index="0"]
tile_data = PoolIntArray( 0, -1073741822, 0, 1, 0, 0, 2, 3, 0, 3, 1, 0, 4, 0, 0, 5, 0, 0, 6, 0, 0, 7, 2, 0, 65536, -1073741823, 0, 65537, -2147483642, 0, 65538, -2147483642, 0, 65539, -2147483642, 0, 65540, -2147483642, 0, 65541, -2147483642, 0, 65542, -2147483642, 0, 65543, -1610612736, 0, 131072, -1073741824, 0, 131073, -2147483642, 0, 131074, -2147483642, 0, 131075, -2147483642, 0, 131076, -2147483642, 0, 131077, -2147483642, 0, 131078, -2147483642, 0, 131079, -536870909, 0, 196608, 1610612738, 0, 196609, 1610612743, 0, 196610, -2147483642, 0, 196611, -2147483642, 0, 196612, -2147483642, 0, 196613, -2147483642, 0, 196614, -2147483642, 0, 196615, -1610612736, 0, 262145, 1610612738, 0, 262146, 1610612736, 0, 262147, 1610612736, 0, 262148, 1610612736, 0, 262149, 1610612736, 0, 262150, 1610612736, 0, 262151, -1610612734, 0 )

[node name="Meubles" type="TileMap" parent="." index="2"]
scale = Vector2( 0.5, 0.5 )
tile_set = ExtResource( 2 )
cell_size = Vector2( 32, 32 )
format = 1
tile_data = PoolIntArray( 10, 536870932, 0, 13, 536870963, 0, 65542, 536870964, 0, 65547, 536870972, 0, 131073, -2147483619, 0, 262149, 536870946, 0, 262152, 536870946, 0, 393229, -536870820, 0, 458759, 1610612833, 0, 458760, 1610612833, 0, 458761, 1610612833, 0, 458762, 1610612833, 0, 458763, 1610612833, 0, 458764, 1610612833, 0 )
