[gd_scene load_steps=3 format=2]

[ext_resource path="res://scenes/Rooms/Room.tscn" type="PackedScene" id=1]
[ext_resource path="res://scenes/RoomFurnitures.tres" type="TileSet" id=2]

[node name="Room" instance=ExtResource( 1 )]

[node name="BG_TileMap" parent="." index="0"]
tile_data = PoolIntArray( 0, -1073741822, 0, 1, 0, 0, 2, 536870912, 0, 3, 1, 0, 4, 0, 0, 5, 0, 0, 6, 2, 0, 65536, -1073741823, 0, 65537, -2147483642, 0, 65538, -2147483642, 0, 65539, -2147483642, 0, 65540, -2147483642, 0, 65541, -2147483642, 0, 65542, 7, 0, 65543, 2, 0, 131072, -1073741824, 0, 131073, -2147483642, 0, 131074, -2147483642, 0, 131075, -2147483642, 0, 131076, -2147483642, 0, 131077, -2147483642, 0, 131078, -2147483642, 0, 131079, -1610612736, 0, 196608, -1073741821, 0, 196609, -2147483642, 0, 196610, -2147483642, 0, 196611, -2147483642, 0, 196612, -2147483642, 0, 196613, -2147483642, 0, 196614, -2147483642, 0, 196615, -536870912, 0, 262144, -2147483646, 0, 262145, 1073741824, 0, 262146, 1610612739, 0, 262147, 1073741824, 0, 262148, 1073741824, 0, 262149, 1073741824, 0, 262150, 1610612736, 0, 262151, -1610612734, 0 )

[node name="Meubles" type="TileMap" parent="." index="2"]
position = Vector2( 255.688, -489.104 )
scale = Vector2( 0.5, 0.5 )
tile_set = ExtResource( 2 )
cell_size = Vector2( 32, 32 )
format = 1
tile_data = PoolIntArray( 2097139, 536870953, 0, 2097142, 536871015, 0, 2097144, 536870917, 0, 2097147, 536871015, 0, 2162678, 536870965, 0, 2162683, 536870965, 0, 2293745, -2147483547, 0, 2293757, 536870919, 0, 2555890, 1610612822, 0, 2555896, 1610612822, 0, 2555901, 1610612822, 0 )
